TimeStamp,G1,G2,G3,G4
100,512,0,4608,0
101,2048,512,1536,3072
102,13824,15360,15360,10240
103,12800,9728,8192,8704
104,4608,2048,5632,1536
105,5632,5632,512,512
106,5632,5632,8704,6144
107,3072,512,3072,2048
108,5632,4608,4608,4608
109,7168,6144,512,5632
110,12800,12800,11264,11264
111,5632,4096,3072,512
112,6144,512,3072,3072
113,11264,512,1536,7168
114,8192,5632,3072,4608
115,512,0,3072,2048
116,5632,2048,1536,3072
117,13824,8704,9728,5632
118,10240,11264,12800,8704
119,9728,7168,4608,5632
120,15360,8192,8192,9728
121,8192,5632,5632,4608
122,8704,9728,4608,5632
123,4608,4608,3072,1536
124,9728,9728,9728,15360
125,2048,1536,5632,1536
126,4608,4608,4608,512
127,4608,6144,2048,4608
128,11264,8192,7168,5632
129,5632,0,2048,7168
130,13824,8704,7168,8704
131,12800,8192,7168,11264
132,512,1536,1536,4608
133,11264,10240,8192,11264
134,2048,3072,4608,1536
135,13824,14336,9728,9728
136,4608,6144,2048,3072
137,7168,6144,5632,3072
138,5632,5632,0,3072
139,4608,4608,4608,4608
140,12800,8192,4608,9728
141,5632,1536,4608,512
142,14336,4608,5632,8704
143,8704,8704,3072,5632
144,9728,5632,5632,4608
145,9728,13824,10240,9728
146,4608,2048,4608,7168
147,512,1536,4608,512
148,4608,0,6144,7168
149,11264,4608,7168,9728
150,3072,512,15360,1536
151,14336,4608,6144,8704
152,6144,1536,2048,3072
153,3072,512,5632,3072
154,11264,8704,4608,8704
155,512,1536,3072,3072
156,9728,8192,2048,4608
157,11264,8704,9728,5632
158,11264,11264,5632,5632
159,6144,5632,5632,3072
160,10240,2048,3072,4608
161,10240,4608,8704,6144
162,5632,2048,5632,1536
163,11264,8704,512,5632
164,8192,4608,6144,4608
165,10240,6144,7168,8704
166,5632,7168,512,7168
167,8192,5632,2048,512
168,4608,13824,14336,2048
169,6144,6144,512,6144
170,12288,14336,13824,9728
171,6656,6144,4608,512
172,4608,4608,7168,5632
173,4608,6144,7168,512
174,8192,512,4608,512
175,5632,6144,512,1536
176,8704,1536,512,5632
177,14336,12800,11264,11264
178,9728,8192,4608,8704
179,13824,10240,8704,9728
180,512,4608,3072,5632
181,9728,3072,3072,7168
182,7168,5632,512,7168
183,4608,4608,512,4608
184,4608,6144,3072,1536
185,9728,5632,9728,4608
186,8704,1536,6144,3072
187,1536,512,2048,1536
188,7168,4608,2048,512
189,10240,3072,3072,3072
190,5632,8192,3072,3072
191,4608,5632,1536,2048
192,10240,3072,1536,5632
193,14336,4608,9728,10240
194,4608,5632,4608,3072
195,4608,4608,8192,5632
196,4608,3072,4608,6144
197,8192,1536,5632,512
198,6144,4608,1536,512
199,8192,5632,4608,1536
200,9728,512,3072,3072
201,10240,512,4608,8704
202,10240,3072,512,2048
203,3072,4608,5632,5632
204,10240,3072,1536,4608
205,8704,11264,4608,7168
206,9728,512,512,512
207,5632,512,3072,7168
208,15360,8704,9728,8704
209,13824,5632,8192,9728
210,12800,10240,15360,9728
211,11264,8192,9728,8704
212,14336,4608,7168,6144
213,10240,8192,8704,12800
214,5632,2048,4608,2048
215,4608,4608,1536,2048
216,12800,7168,5632,8704
217,2048,1536,4608,2048
218,8192,1536,7168,4608
219,3072,2048,4608,2048
220,512,7168,5632,7168
221,3072,5632,4608,4608
222,5632,7168,3072,3072
223,15360,11264,10240,7168
224,11264,3072,2048,7168
225,8704,8192,1536,3072
226,7168,512,3072,5632
227,5632,6144,5632,6144
228,10240,10240,13824,10240
229,7168,2048,512,3072
230,5632,4608,1536,2048
231,6144,6144,7168,1536
232,3072,2048,7168,512
233,4608,2048,512,3072
234,9728,3072,2048,8192
235,11264,8192,4608,7168
236,2048,3072,4608,512
237,4608,5632,512,3072
238,10240,11264,13824,8704
239,5632,1536,6144,2048
240,4608,2048,3072,7168
241,5632,4096,5632,3072
242,4608,4608,512,2048
243,9728,5632,11264,4608
244,8704,6144,8704,4608
245,12800,8704,4608,8192
246,8704,8192,1536,4608
247,12800,7168,7168,5632
248,10240,6144,3072,6144
249,10240,6144,7168,11264
250,5632,512,2048,7168
251,7168,4608,3072,3072
252,2048,4608,3072,4608
253,2048,2048,512,6144
254,10240,3072,4608,8192
255,4608,4608,7168,1536
256,14336,8704,8704,8192
257,14336,9728,8704,10240
258,5632,3072,5632,4608
259,7168,1536,512,4608
260,8704,5632,3072,4608
261,5632,5632,4608,4608
262,8704,3072,4608,6144
263,2048,1536,6144,3072
264,11264,8192,11264,4608
265,4608,5632,7168,3072
266,4608,512,1536,0
267,10240,512,7168,11264
268,1536,6144,3072,7168
269,10240,3072,4608,1536
270,15360,15360,11264,10240
271,4608,5632,8704,3072
272,12800,12288,9728,13824
273,5632,3072,512,1536
274,12800,13824,8704,11264
275,3072,2048,4608,7168
276,8704,8192,4608,3072
277,14336,8192,7168,10240
278,9728,5632,512,3072
279,7168,4608,1536,1536
280,8192,7168,3072,5632
281,8704,9728,12800,8704
282,12800,13824,12800,13824
283,2048,512,3072,3072
284,9728,1536,2048,8704
285,13824,8704,11264,11264
286,7168,5632,512,2048
287,8704,3072,2048,3072
288,4096,4608,7168,3072
289,13824,8192,9728,8704
290,1536,7168,3072,7168
291,6144,5632,512,1536
292,5632,1536,7168,1536
293,6144,10240,3072,4608
294,9728,8192,4608,7168
295,3072,2048,2048,512
296,9728,8192,1536,2048
297,5632,8704,1536,4608
298,7168,4608,512,2048
299,8192,5632,10240,15360
300,1536,512,7168,4608
301,13824,8192,9728,14336
302,9728,10240,10240,13824
303,11264,11264,12800,13824
304,6144,7168,512,6144
305,10240,1536,4608,1536
306,15360,12800,12800,11264
307,9728,5632,4608,5632
308,7168,6144,512,512
309,2048,6144,512,5632
310,7168,3072,8192,3072
311,8704,3072,512,7168
312,8192,5632,3072,6144
313,12800,6144,6144,8192
314,5632,512,7168,4608
315,4608,2048,3072,1536
316,8704,8704,3072,3072
317,8704,512,5632,8704
318,9728,10240,4608,5632
319,4608,3072,7168,1536
320,12800,4608,7168,10240
321,2048,512,7168,2048
322,6144,7168,512,3072
323,8192,4608,512,5632
324,5632,512,512,512
325,4608,4608,512,3072
326,5632,1536,2048,512
327,1536,512,2048,7168
328,8192,7168,8704,4608
329,8704,8192,11264,8704
330,8192,6144,3072,5632
331,8192,4608,4608,512
332,6144,4608,1536,4608
333,8192,6144,1536,6144
334,8192,5632,1536,512
335,4608,5632,2048,512
336,5632,2048,5632,512
337,4608,6144,3072,7168
338,4608,7168,7168,3072
339,1536,6144,3072,4608
340,8192,512,3072,1536
341,3072,512,5632,5632
342,7168,3072,7168,3072
343,9728,5632,5632,8704
344,10240,11264,15360,9728
345,3072,4608,4608,512
346,4096,512,3072,7168
347,7168,2048,512,3072
348,10240,11264,8192,10240
349,6656,9728,12800,14336
350,7168,512,4608,5632
351,512,5632,512,4608
352,8704,8192,2048,7168
353,12800,2048,4608,6144
354,8192,4608,5632,4608
355,5632,2048,7168,512
356,4608,4608,4608,3072
357,12800,6144,2048,4608
358,14336,12800,8704,8704
359,12800,4608,6144,10240
360,2048,4608,512,4608
361,12800,6144,3072,5632
362,5632,4608,1536,2048
363,8704,7168,8704,4608
364,5632,1536,512,4608
365,13824,13824,9728,13824
366,9728,3072,2048,5632
367,4608,3072,512,3072
368,12800,11264,4608,8704
369,8704,4608,3072,512
370,2048,1536,5632,2048
371,4608,4608,512,3072
372,6144,7168,4608,4608
373,7168,512,6144,1536
374,6144,2048,7168,1536
375,11264,5632,7168,5632
376,6144,7168,512,4608
377,8192,512,3072,3072
378,4608,5632,7168,3072
379,5632,4608,1536,2048
380,4608,6144,3072,4608
381,3072,4608,3072,4608
382,14336,2048,4608,6144
383,2048,1536,512,3072
384,8704,8704,11264,12800
385,6144,6144,3072,512
386,5632,4608,512,4608
387,11264,8704,4608,6144
388,7168,4608,512,1536
389,2048,6144,5632,9728
390,8192,4608,2048,3072
391,7168,512,7168,512
392,14336,7168,8704,8704
393,8192,4608,5632,3072
394,6144,3072,4608,1536
395,4608,512,5632,4608
396,2048,7168,3072,7168
397,5632,5632,2048,3072
398,5632,4608,12800,1536
399,8704,5632,8704,7168
400,8192,2048,512,3072
401,8704,14336,11264,13824
402,10240,2048,7168,1536
403,1536,3072,4608,3072
404,2048,3072,3072,6144
405,5632,2048,5632,512
406,4608,5632,1536,1536
407,8704,512,2048,4608
408,8704,8704,10240,12800
409,10240,3072,5632,8192
410,1536,1536,7168,5632
411,6144,4608,3072,512
412,512,6144,7168,2048
413,7168,3072,7168,512
414,9728,9728,5632,8704
415,12800,8704,5632,4608
416,6144,4608,2048,5632
417,8704,5632,8704,6144
418,10240,8704,11264,8192
419,8704,4608,8704,512
420,8192,5632,8192,3072
421,12800,8704,4608,4608
422,9728,8704,5632,4608
423,4608,4608,7168,1536
424,512,1536,3072,5632
425,7168,3072,3072,512
426,12800,10240,8704,4608
427,12800,13824,8704,10240
428,12800,9728,5632,9728
429,6144,4608,512,1536
430,8704,512,6144,3072
431,8704,8192,2048,5632
432,6144,7168,3072,5632
433,4608,8192,512,1536
434,2048,512,14336,12800
435,2048,512,512,6144
436,10240,10240,5632,9728
437,1536,4608,5632,4608
438,14336,6144,9728,9728
439,11264,8192,7168,5632
440,8704,5632,3072,4608
441,5632,4608,5632,512
442,8192,3072,3072,2048
443,5632,6144,512,7168
444,4608,512,4608,0
445,8192,8704,8704,14336
446,8704,11264,7168,4608
447,5632,2048,4608,4608
448,7168,1536,512,1536
449,11264,8704,7168,5632
450,8704,4608,3072,8192
451,8704,4608,8192,7168
452,9728,4608,2048,4608
453,4608,2048,6144,512
454,5632,4096,512,4608
455,1536,512,1536,7168
456,6144,4608,4608,3072
457,2048,6144,512,3072
458,10240,7168,9728,7168
459,0,5632,1536,2048
460,5632,6144,512,6144
461,8192,8704,512,7168
462,8704,10240,7168,7168
463,7168,5632,4608,3072
464,9728,10240,12800,8704
465,6144,512,14336,512
466,10240,8704,3072,5632
467,6144,512,4608,512
468,4608,6144,3072,2048
469,11264,512,1536,1536
470,10240,8192,5632,8192
471,5632,4608,4608,512
472,10240,10240,8704,14336
473,8192,7168,5632,7168
474,5632,2048,4608,6144
475,12800,5632,5632,8192
476,7168,6144,1536,4608
477,6144,4608,1536,2048
478,14336,2048,7168,2048
479,3072,6144,7168,4608
480,3072,1536,4608,6144
481,8192,6144,3072,6144
482,512,512,4608,1536
483,13824,8192,10240,9728
484,8704,8192,4608,4608
485,14336,11264,11264,15360
486,9728,8704,3072,5632
487,4608,512,3072,512
488,512,512,6144,7168
489,7168,7168,512,4608
490,7168,5632,2048,7168
491,4608,1536,5632,3072
492,12800,12800,12800,13824
493,9728,2048,3072,8192
494,5632,2048,7168,512
495,8192,5632,512,4608
496,4608,3072,512,1536
497,7168,2048,3072,3072
498,10240,8704,3072,5632
499,512,6144,4608,3072
500,13824,8192,4608,8192
501,4608,2048,512,3072
502,8192,0,3072,512
503,5632,0,4608,1536
504,9728,6144,8192,512
505,8192,1536,5632,3072
506,6144,512,5632,4608
507,8192,1536,3072,5632
508,10240,4608,2048,7168
509,8704,8704,8704,10240
510,6144,512,7168,512
511,3072,2048,3072,4608
512,5632,2048,512,3072
513,5632,512,5632,3072
514,512,1536,4608,5632
515,7168,512,4608,6144
516,2048,512,2048,3072
517,512,0,2048,2048
518,8704,10240,9728,12800
519,12800,12288,8704,11264
520,5632,6144,512,4608
521,7168,3072,1536,512
522,11264,1536,7168,8704
523,8192,1536,4608,512
524,12800,9728,8192,8704
525,8192,5632,5632,2048
526,3072,4608,3072,6144
527,11264,5632,10240,5632
528,0,13824,10240,8704
529,8192,2048,3072,5632
530,8192,6144,3072,3072
531,8704,12800,9728,12800
532,8192,1536,6144,1536
533,2048,1536,4608,512
534,5632,5632,3072,3072
535,2048,4608,4608,7168
536,5632,4608,512,512
537,11264,512,3072,6144
538,5632,4608,1536,512
539,8704,5632,8704,4608
540,15360,8192,9728,11264
541,3072,512,512,0
542,7168,4608,1536,1536
543,7168,2048,2048,7168
544,4608,7168,8704,3072
545,6144,5632,3072,1536
546,512,0,7168,7168
547,8704,8192,6144,4608
548,512,5632,4608,4608
549,5632,0,6144,7168
550,8704,12800,8704,12800
551,8192,8704,3072,4608
552,4608,2048,4608,1536
553,8704,1536,3072,3072
554,1536,2048,6144,512
555,7168,1536,1536,7168
556,10240,8192,11264,8192
557,4608,3072,512,512
558,12800,5632,4608,9728
559,4608,4608,512,512
560,11264,3072,3072,8192
561,8192,8704,2048,3072
562,12800,14336,15360,15360
563,4608,6144,1536,6144
564,1536,512,7168,512
565,10240,2048,512,512
566,3072,1536,512,5632
567,512,1536,1536,4608
568,4608,6144,2048,3072
569,11264,8192,6144,5632
570,2048,512,4608,7168
571,6144,512,13824,0
572,6144,5632,512,2048
573,0,13824,512,512
574,9728,4608,1536,5632
575,4608,512,6144,1536
576,512,14336,512,15360
577,9728,7168,3072,3072
578,5632,5632,9728,3072
579,13824,4608,7168,10240
580,8704,5632,10240,7168
581,11264,12800,8704,10240
582,2048,2048,512,6144
583,8704,512,512,7168
584,14336,12800,10240,8704
585,4608,7168,4608,512
586,5632,4608,512,6144
587,12800,7168,8704,5632
588,512,512,2048,5632
589,0,6144,2048,3072
590,1536,512,4608,7168
591,6144,5632,3072,3072
592,5632,0,1536,6144
593,9728,1536,512,5632
594,512,0,1536,0
595,5632,2048,512,2048
596,3072,3072,5632,4608
597,4608,1536,5632,3072
598,0,7168,3072,3072
599,1536,4608,512,6144
600,7168,7168,3072,5632
601,4608,4608,4608,5632
602,9728,2048,8704,4608
603,11264,8192,4608,8192
604,6144,512,5632,1536
605,13824,12800,8192,11264
606,4608,5632,1536,512
607,12800,12800,12800,10240
608,14336,12800,8192,8704
609,512,512,512,512
610,14336,6144,4608,9728
611,7168,3072,5632,2048
612,7168,4608,8704,3072
613,10240,7168,8704,9728
614,1536,512,1536,6144
615,2560,9728,5632,10240
616,11264,11264,6144,8704
617,5632,5632,512,4608
618,8704,12800,11264,14336
619,11264,4608,8704,5632
620,8704,512,4608,8192
621,1536,512,5632,2048
622,5632,6144,512,3072
623,11264,5632,6144,4608
624,0,3072,2048,1536
625,1536,3072,2048,5632
626,9728,1536,2048,4608
627,512,4608,7168,3072
628,8704,4608,3072,6144
629,0,12800,10240,8704
630,8192,4608,7168,1536
631,11264,512,1536,7168
632,8704,5632,8704,4608
633,8704,10240,7168,8704
634,5632,5632,4608,2048
635,512,512,5632,6144
636,1536,4096,4608,2048
637,9728,512,6144,8704
638,5632,4608,2048,4608
639,8192,512,3072,4608
640,2048,512,13824,1536
641,7168,4608,1536,3072
642,8192,8192,3072,4608
643,5632,6144,5632,2048
644,5632,5632,512,5632
645,4608,2048,5632,512
646,6144,5632,7168,3072
647,4608,6144,1536,6144
648,4608,5632,512,6144
649,6144,4608,3072,512
650,8704,11264,10240,13824
651,4608,4608,512,2048
652,7168,4608,7168,2048
653,8704,8192,512,4608
654,4608,2048,512,512
655,512,512,6144,2048
656,3072,4608,512,4608
657,11264,4608,7168,8192
658,10240,5632,5632,8704
659,11264,7168,5632,8704
660,1536,6144,4608,6144
661,8192,8704,4608,4608
662,2048,6144,3072,4608
663,4608,5632,4608,512
664,8704,1536,3072,512
665,8704,4608,2048,4608
666,2048,4608,3072,5632
667,10240,1536,7168,11264
668,9728,7168,8704,4608
669,6144,5632,4608,7168
670,12800,4608,5632,10240
671,4608,512,2048,5632
672,4608,6144,7168,2048
673,1536,2048,12800,512
674,9728,512,3072,8704
675,8704,8192,1536,4608
676,512,5632,4608,5632
677,8192,4608,512,512
678,4608,2048,5632,1536
679,9728,8704,8192,8704
680,10240,4608,5632,8704
681,10240,3072,2048,5632
682,8704,4608,4608,8704
683,512,0,1536,4608
684,13824,12800,8192,8704
685,8704,8192,5632,5632
686,5632,0,5632,512
687,8704,10240,512,5632
688,9728,512,1536,512
689,10240,10240,8704,9728
690,14336,11264,15360,8704
691,7168,512,1536,4608
692,6144,5632,7168,3072
693,9728,8704,8192,7168
694,6144,6144,6144,3072
695,5632,5632,7168,512
696,8192,8192,3072,7168
697,7168,4608,4608,512
698,12800,8192,15360,12800
699,1536,4608,3072,4608
700,8704,1536,3072,4608
701,8704,9728,5632,5632
702,4608,512,512,4608
703,8192,13824,8704,9728
704,512,4608,512,5632
705,10240,8704,10240,15360
706,10240,11264,7168,8192
707,10240,3072,5632,8704
708,4608,2048,7168,3072
709,5632,4608,512,512
710,4608,6144,3072,4608
711,13824,4608,8704,1536
712,12800,8704,15360,10240
713,8704,8704,8192,9728
714,5632,2048,6144,512
715,8704,10240,3072,7168
716,2048,3072,6144,7168
717,512,512,512,5632
718,5632,512,512,512
719,7168,5632,7168,3072
720,4608,6144,3072,3072
721,512,4096,512,6144
722,7168,4608,1536,512
723,4608,4608,4608,1536
724,4608,5632,512,1536
725,4608,1536,7168,3072
726,12800,11264,9728,13824
727,15360,11264,11264,8704
728,8704,512,7168,8704
729,15360,5632,9728,9728
730,4608,5632,8704,2048
731,4608,6144,1536,3072
732,6144,7168,11264,6144
733,6144,3072,4608,512
734,3072,3072,7168,6144
735,1536,2048,512,14336
736,512,2048,3072,7168
737,1536,1536,3072,3072
738,4608,512,512,7168
739,8704,8704,5632,5632
740,8192,11264,8704,8704
741,4608,4608,3072,3072
742,1536,512,4608,5632
743,3072,2048,4608,512
744,0,10240,0,9728
745,2048,1536,2048,7168
746,9728,512,2048,3072
747,8192,3072,7168,512
748,6144,3072,4608,0
749,12800,8704,9728,8704
750,8192,512,1536,7168
751,3072,7168,512,7168
752,512,5632,1536,3072
753,5632,5632,1536,3072
754,11264,512,4608,4608
755,512,5632,1536,6144
756,512,5632,512,6144
757,6144,7168,512,6144
758,15360,13824,13824,15360
759,8192,8192,1536,5632
760,5632,7168,2048,5632
761,8192,1536,1536,3072
762,13824,12288,9728,12800
763,3072,2048,1536,512
764,8704,8704,11264,14336
765,3072,512,512,5632
766,512,2048,512,6144
767,512,512,1536,1536
768,9728,1536,1536,4608
769,7168,4608,3072,2048
770,4608,512,1536,2048
771,15360,11264,11264,8192
772,2048,7168,4608,4608
773,8192,8192,512,4608
774,3072,0,14336,14336
775,5632,4608,4608,3072
776,10240,512,5632,4608
777,9728,512,1536,4608
778,6144,4608,6144,3072
779,5632,3072,1536,2048
780,8192,7168,512,5632
781,8704,8192,8704,4608
782,12800,9728,10240,15360
783,512,6144,512,5632
784,4608,2048,4608,3072
785,10240,11264,8704,8704
786,11264,8704,14336,8704
787,4608,4608,4608,1536
788,6144,512,2048,7168
789,4608,3072,7168,3072
790,512,512,15360,0
791,6144,5632,6144,512
792,2048,3072,7168,7168
793,4608,5632,512,5632
794,14336,7168,3072,8192
795,12800,10240,14336,11264
796,14336,12800,9728,8192
797,8704,5632,10240,3072
798,10240,1536,4608,1536
799,5632,8192,1536,7168
800,1536,512,4608,4608
801,7168,7168,2048,7168
802,9728,8192,3072,5632
803,12800,7168,4608,4608
804,6144,13824,15360,3072
805,4608,2048,6144,512
806,14336,7168,4608,9728
807,8192,5632,4608,3072
808,6144,2048,7168,3072
809,4608,12800,0,2048
810,9728,6144,8704,5632
811,3584,8704,9728,15360
812,9728,4608,7168,8192
813,8192,3072,4608,1536
814,8704,8704,8704,11264
815,3072,2048,4608,512
816,3072,4608,5632,4608
817,5632,2048,512,1536
818,10240,2048,4608,8192
819,8704,5632,8704,3072
820,10240,11264,12800,8704
821,9728,5632,4608,10240
822,4608,2048,7168,1536
823,1536,2048,4608,512
824,2048,3072,6144,1536
825,11264,11264,6144,8192
826,10240,11264,7168,8704
827,7168,2048,5632,512
828,10240,4608,7168,512
829,8192,4608,3072,3072
830,5632,8192,3072,6144
831,512,1536,4608,1536
832,9728,10240,8704,9728
833,7168,1536,5632,1536
834,9728,1536,4608,8192
835,4608,1536,512,7168
836,8192,5632,2048,7168
837,10240,10240,13824,14336
838,12800,8704,10240,5632
839,4608,2048,4608,512
840,8704,4608,11264,8704
841,5632,4608,5632,3072
842,7168,2048,7168,2048
843,8704,6144,4608,4608
844,1536,512,5632,512
845,5632,5632,2048,3072
846,0,512,11264,0
847,4608,4608,512,4608
848,4608,6144,7168,1536
849,7168,4608,3072,6144
850,2048,7168,1536,2048
851,8192,5632,5632,5632
852,5632,1536,4608,512
853,8704,8704,5632,8192
854,8192,4608,8704,4608
855,11264,4608,4608,8704
856,8704,1536,3072,1536
857,8704,2048,5632,2048
858,14336,8704,11264,8704
859,13824,8704,8704,8704
860,9728,8704,5632,6144
861,2048,512,4608,7168
862,512,12800,3072,512
863,11264,8704,4608,4608
864,4608,512,4608,3072
865,15360,12800,9728,11264
866,4608,5632,11264,7168
867,9728,6144,3072,7168
868,4608,4608,512,6144
869,7168,5632,512,1536
870,15360,8192,4608,8704
871,13824,11264,15360,8704
872,13824,4608,8704,4608
873,13824,4608,6144,8704
874,11264,3072,3072,4608
875,4608,5632,7168,4608
876,5632,4608,2048,3072
877,9728,2048,3072,8192
878,11264,9728,7168,4608
879,7168,3072,7168,2048
880,5632,5632,8704,4608
881,5632,4096,512,512
882,5632,1536,6144,512
883,4608,6144,512,3072
884,4608,4608,512,1536
885,7168,512,3072,1536
886,3072,3072,7168,7168
887,5632,7168,7168,4608
888,5632,4608,7168,3072
889,512,6144,7168,3072
890,13824,10240,11264,8704
891,4608,512,7168,3072
892,1536,3072,7168,3072
893,3072,512,7168,512
894,14336,10240,12800,9728
895,512,512,4608,7168
896,7168,1536,512,512
897,4608,5632,1536,4608
898,1536,0,5632,3072
899,2048,512,2048,5632
900,9728,8704,11264,5632
901,8704,2048,3072,4608
902,10240,7168,7168,9728
903,15360,11264,12800,10240
904,12288,8192,5632,9728
905,6144,512,7168,2048
906,6144,5632,1536,512
907,13824,5632,8192,12800
908,5632,4608,7168,2048
909,1536,1536,3072,7168
910,6144,3072,5632,5632
911,7168,512,2048,7168
912,4608,6144,3072,4608
913,3072,3072,3072,1536
914,4608,5632,3072,3072
915,8704,4608,10240,4608
916,12800,9728,10240,11264
917,3072,6144,7168,2048
918,6144,512,2048,3072
919,512,512,4608,4608
920,15360,13824,8704,8704
921,8704,7168,11264,4608
922,5632,6144,3072,5632
923,12800,5632,7168,5632
924,11264,5632,5632,8704
925,10240,8704,11264,8704
926,14336,14336,9728,9728
927,5632,6144,3072,4608
928,8192,4608,6144,5632
929,6144,4608,4608,3072
930,6144,512,5632,2048
931,6144,6144,1536,3072
932,1536,0,2048,4608
933,4608,3072,512,512
934,1536,512,4608,6144
935,13824,11264,5632,11264
936,4608,2048,7168,3072
937,15360,5632,8192,4608
938,1536,2048,7168,2048
939,15360,8704,9728,8704
940,13824,4608,8192,4608
941,8704,2048,512,3072
942,5632,0,512,4608
943,9728,8192,8704,12800
944,8192,4608,1536,2048
945,9728,8192,8704,4608
946,8704,8704,4608,6144
947,14336,14336,11264,11264
948,12800,8704,8704,12800
949,4608,4608,512,7168
950,12800,8704,12800,6144
951,5632,512,4608,2048
952,14336,11264,12800,13824
953,6144,4608,2048,512
954,4608,2048,1536,512
955,8704,4608,5632,6144
956,2048,512,3072,512
957,5632,6144,3072,3072
958,2048,5632,512,4608
959,11264,8704,6144,6144
960,12800,15360,8704,8704
961,2048,3072,4608,2048
962,7168,5632,2048,512
963,12800,8192,8704,9728
964,8704,512,1536,4608
965,10240,4608,8704,9728
966,5632,512,512,4608
967,5632,4096,7168,512
968,6144,4608,5632,3072
969,11264,8192,8704,6144
970,6144,3072,6144,2048
971,512,2048,12800,0
972,3072,512,1536,5632
973,8704,2048,512,3072
974,1536,1536,7168,4608
975,12800,10240,11264,8704
976,3072,3072,512,7168
977,8704,7168,11264,3072
978,8704,512,1536,4608
979,12800,12800,13824,9728
980,512,4096,3072,6144
981,9728,12800,13824,12800
982,1536,512,5632,512
983,5632,5632,512,1536
984,5632,3072,4608,3072
985,1536,3072,13824,1536
986,11264,9728,9728,12800
987,4608,512,512,3072
988,1536,0,512,6144
989,7168,4608,512,2048
990,14336,8704,12800,9728
991,9728,9728,4608,8192
992,10240,7168,9728,4608
993,4608,6144,3072,3072
994,6144,2048,7168,2048
995,10240,4608,5632,8192
996,2048,3072,15360,13824
997,13824,4608,8704,9728
998,9728,512,3072,7168
999,2048,512,0,4608
1000,4608,7168,1536,6144
1001,2048,4608,5632,5632
1002,11264,2048,8704,9728
1003,5632,7168,2048,3072
1004,3072,4608,512,5632
1005,8704,8192,2048,3072
1006,8704,10240,9728,12800
1007,8192,512,3072,5632
1008,2048,1536,512,1536
1009,12800,13824,11264,9728
1010,11264,9728,7168,8704
1011,10240,9728,13824,8704
1012,9728,8704,5632,5632
1013,8192,4608,11264,7168
1014,10240,6144,11264,7168
1015,9728,6144,5632,10240
1016,8704,10240,13824,14336
1017,9728,512,2048,4608
1018,6144,5632,1536,5632
1019,7168,512,5632,512
1020,10240,7168,7168,8704
1021,6144,5632,512,6144
1022,8192,3072,512,7168
1023,9728,512,1536,5632
1024,6144,4608,512,3072
1025,11264,7168,3072,512
1026,4608,2048,512,2048
1027,3072,7168,512,4608
1028,2048,2048,512,4608
1029,13824,9728,13824,9728
1030,6144,7168,512,3072
1031,6144,3072,2048,512
1032,9728,11264,8704,14336
1033,11264,4608,7168,8192
1034,11264,7168,8704,4608
1035,4608,2048,2048,512
1036,4608,2048,5632,1536
1037,10240,6144,8192,9728
1038,8192,512,4608,8192
1039,4096,512,6144,3072
1040,8192,5632,512,7168
1041,9728,9728,14336,13824
1042,8704,2048,512,3072
1043,2048,512,2048,4608
1044,5632,512,5632,6144
1045,8192,8704,3072,8192
1046,3072,512,512,4608
1047,8704,9728,11264,4608
1048,4608,3072,512,3072
1049,4608,4608,1536,1536
1050,9728,1536,3072,8704
1051,4608,6144,6144,3072
1052,6144,7168,11264,7168
1053,12800,9728,8704,8704
1054,1536,4608,3072,4608
1055,12800,11264,8192,8192
1056,512,512,2048,5632
1057,4608,3072,5632,1536
1058,8192,8704,2048,4608
1059,8704,12800,12800,10240
1060,14336,7168,8704,11264
1061,14336,10240,15360,11264
1062,8704,8704,5632,8192
1063,9728,8704,7168,8704
1064,4096,6144,3072,7168
1065,3072,512,4608,7168
1066,8192,5632,512,3072
1067,11264,3072,512,7168
1068,8704,6144,8704,5632
1069,3072,1536,5632,5632
1070,0,512,512,5632
1071,8192,5632,4608,512
1072,8704,1536,6144,8704
1073,11264,6144,4608,8704
1074,8704,11264,1536,4608
1075,4608,5632,512,5632
1076,8192,8704,8704,12800
1077,6144,512,2048,7168
1078,6144,2048,3072,512
1079,10240,5632,5632,8704
1080,11264,11264,5632,8704
1081,8192,3072,5632,7168
1082,4608,6144,1536,512
1083,13824,8704,11264,12800
1084,9728,3072,4608,1536
1085,1536,5632,7168,512
1086,8192,1536,4608,2048
1087,10240,512,4608,5632
1088,0,4608,3072,2048
1089,9728,4096,5632,2048
1090,1536,2048,4608,6144
1091,4608,6144,8704,1536
1092,11264,4608,6144,5632
1093,8192,512,1536,4608
1094,512,1536,5632,4608
1095,12288,13824,13824,8704
1096,8704,10240,15360,15360
1097,512,5632,3072,4608
1098,11264,4608,512,5632
1099,5632,8192,3072,3072
